…
FALSE  TRUE 
  108   235 
> tp53_anno[!tp53_anno$`ensembl ID` %in% tp53$ens_id,]
# A tibble: 108 x 2
   `ensembl ID`    `Gene Symbol`
   <chr>           <chr>        
 1 ENSG00000138271 GPR87        
 2 ENSG00000144452 ABCA12       
 3 ENSG00000167196 FBXO22       
 4 ENSG00000174307 PHLDA3       
 5 ENSG00000206075 SERPINB5     
 6 ENSG00000164070 HSPA4L       
 7 ENSG00000049130 KITLG        
 8 ENSG00000143479 DYRK3        
 9 ENSG00000131080 EDA2R        
10 ENSG00000142627 EPHA2        
# … with 98 more rows
…
